…
dynamite_reviews = bind_rows(
  read_page_reviews(vec_urls[1]),
  read_page_reviews(vec_urls[2]),
  read_page_reviews(vec_urls[3]),
  read_page_reviews(vec_urls[4]),
  read_page_reviews(vec_urls[5])
)

dynamite_reviews
```

    ## # A tibble: 50 x 3
    ##    title                               stars text                          
    ##    <chr>                               <dbl> <chr>                         
    ##  1 "Great movie\n            "             5 Format: Blu-rayVerified Purch…
    ##  2 "Duh\n            "                     5 Format: Prime VideoVerified P…
    ##  3 "Great video\n            "             5 Format: DVDVerified Purchase  
    ##  4 "Give me some of your tots\n      …     5 Format: Prime VideoVerified P…
    ##  5 "Nostalgic\n            "               5 Format: Prime VideoVerified P…
    ##  6 "Make you giggle type movie\n     …     5 Format: Blu-rayVerified Purch…
    ##  7 "This movie is so stupid.\n       …     5 Format: Prime VideoVerified P…
    ##  8 "Hilarious\n            "               5 Format: Prime VideoVerified P…
    ##  9 "Waste of money\n            "          1 Format: Prime VideoVerified P…
    ## 10 "Good movie\n            "              5 Format: Prime VideoVerified P…
    ## # … with 40 more rows
